@startuml

'scale 550 height
'scale 700 width 

actor Client as CLI #red
actor Admin as ADM #LightSkyBlue

participant "Service Broker" as SBR #LightSkyBlue
participant "API" as API #LightSkyBlue
participant Application as APP #OrangeRed
participant Controler as BOK #OrangeRed

== Instanciation Application ==
ADM->SBR: create application
SBR->BOK: create user
BOK->SBR: Secret client
SBR->APP: Secret client & service urls

== Usage Application ==

CLI->APP: Request Application

group If session Token empty or not valid
  APP->BOK: Get session (Secret client)
  BOK->APP: session Token + digest
end

APP->BOK: Get service (token + digest)
BOK->BOK: check digest
BOK->API: Get service (token)
API->API: check token validity
API->BOK: service response
BOK->APP: service response

APP->CLI: application response

@enduml
